{
    "teaserOptions":
    {
        "fx": "fade",
        "timeout": 6000,
        "speed": 500
    },

    "teaserImages":
    {
        "jointhegame.png":
        {
            "href": "https://relate.kde.org/civicrm/contribute/transact?reset=1&amp;id=5",
            "alt": "Join the Game"
        },
        "KDEDevelbook.png":
        {
            "href": "http://books.kde.org/",
            "alt": "KDE Books"
        }
    }
}
