------------------------------------------------------------------------
r914648 | scripty | 2009-01-21 13:41:42 +0000 (Wed, 21 Jan 2009) | 1 line

SVN_SILENT made messages (.desktop file)
------------------------------------------------------------------------
r915131 | scripty | 2009-01-22 13:51:52 +0000 (Thu, 22 Jan 2009) | 1 line

SVN_SILENT made messages (.desktop file)
------------------------------------------------------------------------
r924082 | schwarzer | 2009-02-10 02:12:09 +0000 (Tue, 10 Feb 2009) | 1 line

no need to give a reason here... and the reason might be confusing
------------------------------------------------------------------------
r924603 | scripty | 2009-02-11 08:23:35 +0000 (Wed, 11 Feb 2009) | 1 line

SVN_SILENT made messages (.desktop file)
------------------------------------------------------------------------
r930767 | scripty | 2009-02-24 08:18:38 +0000 (Tue, 24 Feb 2009) | 1 line

SVN_SILENT made messages (.desktop file)
------------------------------------------------------------------------
