------------------------------------------------------------------------
r1032982 | scripty | 2009-10-09 03:13:15 +0000 (Fri, 09 Oct 2009) | 1 line

SVN_SILENT made messages (.desktop file)
------------------------------------------------------------------------
