------------------------------------------------------------------------
r881007 | scripty | 2008-11-07 07:36:52 +0000 (Fri, 07 Nov 2008) | 1 line

SVN_SILENT made messages (.desktop file)
------------------------------------------------------------------------
r893181 | scripty | 2008-12-06 08:26:27 +0000 (Sat, 06 Dec 2008) | 1 line

SVN_SILENT made messages (.desktop file)
------------------------------------------------------------------------
r893665 | scripty | 2008-12-07 07:52:08 +0000 (Sun, 07 Dec 2008) | 1 line

SVN_SILENT made messages (.desktop file)
------------------------------------------------------------------------
